+79629018591
+79037964017
+79687263549
+79094651602
+79164066743
+79055858975
+79680057623
+79671856988
+79680477849
+79686698986
+79629019021
+79629018399
+79686057456
+79686057456
+79037966645
+79653368207
+79637222690
+79037986834
+79663161927
+79689495388
+79096834281
+79037966772
+79057425785
+79660169848
+79175090673
+79037989932
+79660112115
+79651706826
+79663564750
+79637221821
+79663575640
+79154499946
+79653713295
+79671662370
+79055210862
+79683638725
+79653894167
+79671347683
+79057169827
+79683330252
+79055544370
+79017294335
+79055611941
+79233222718
+79686057456
+79251269398
+79233222172
+79060262883
+79099579734
+79037532150
+79858495681
+79646385994
+79165210535
+79151291339
+79686698986
+79154499940
+79852391393
+79175597402
+79629325861
+79060970320
+79603267977
+79605266747
+79036268653
+79035961917
+79663564750
+79251955408
+79035706441
+79686668774
+79660169848
+79035962648
+79151291019
+79067756154
+79645371689
+79153322184
+79636852609
+79055612431
+79165202199
+79687136600
+79160932279
+79852492751
+79858010993
+79653457129
+79851996127
+79160726955
+79067758571
+79154499982
+79060970320
+79663009012
+79685929616
+79166273593
+79663174792
+79268168973
+79099560868
+79162648864
+79639961818
+79683357805
+79636518858
+79686057456
+79683330292
+79671662370
+79055611941
+79661321887
+79683357805
+79370387425
+79683357805
+79060970320
+79067253495
+79099559501
+79854699683
+79683357805
+79096560490
+79663180680
+79630996914
+79035414924
+79160547412
+79855442182
+79530264688
+79152887145
+79250722973
+79267596293
+79268163576
+79687701470
+79030083977
+79032771818
+79663575640
+79683357805
+79858606441
+79096560490
+79035477835
+79067760977
+79684381616
+79671856988
+79150355250
+79654109329
+79035350455
+79033722001
+79099317676
+79683638725
+79036816943
+79660427597
+79099114345
+79631084700
+79645369756
+79853050976
+79663326027
+79661307036
+79057169827
+79689495388
+79663869729
+79060970320
+79154547496
+79036268653
+79055612431
+79680899494
+79858605756
+79264689497
+79265996078
+79645948168
+79207420796
+79096572178
+79100190791
+79169073500
+79015744953
+79685628181
+79858182816
+79162410158
+79645815808
+79039795675
+79652595678
+79296452860
+79266511401
+79629159940
+79637177425
+79267450178
+79160150846
+79854626023
+79104690569
+79663157782
+79055649592
+79853622589
+79032359286
+79032774908
+79060195925
+79672635358
+79104267921
+79017669908
+79166357485
+79684387730
+79639643651
+79663428911
+79251003515
+79166776203
+79169454406
+79652988143
+79654329268
+79166059126
+79269324952
+79032688131
+79217666594
+79031659497
+79175086486
+79151694902
+79993977770
+79854273477
+79175172849
+79163603974
+79167934705
+79104329765
+79164529043
+79660765169
+79039735395
+79255111685
+79852132603
+79102523094
+79661966102
+79854487872
+79853640459
+79057531658
+79032359286
+79263160444
+79773997380
+79253662854
+79295655018
+79859426133
+79852071832
+79031481042
+79267433647
+79035242297
+79645948129
+79163823104
+79858157865
+79258517787
+79265141187
+79067059284
+79685689278
+79671963014
+79169575204
+79647272325
+79652019494
+79251159784
+79268064835
+79998611639
+79060466003
+79660479737
+79253114854
+79663520565
+79651994510
+79257907110
+79067213961
+79855480193
+79091603121
+79645633625
+79035969545
+79859118597
+79150533850
+79191098235
+79151877052
+79855156846
+79051437493
+79057221782
+79035370249
+79672701714
+79253317462
+79296887370
+79523892835
+79060876014
+79852430316
+79255221711
+79065582904
+79651319117
+79645895327
+79670245089
+79255363277
+79267727305
+79993497315
+79135242120
+79858422719
+79067256913
+79654268663
+79036876282
+79265036770
+79164616176
+79055413064
+79151694938
+79037178559
+79651532587
+79670017634
+79031763229
+79847079725
+79168123476
+79776172768
+79587569765
+79779936665
+79636721915
+79251943484
+79636846969
+79661321813
+79661432851
+79165448571
+79855380610
+79584983764
+79776173887
+79153589013
+79035185662
+79689944675
+79039789778
+79261742305
+79647020149
+79261733957
+79853138993
+79647050072
+79175086486
+79651335237
+79663213177
+79856642640
+79855417753
+79776175921
+79670493676
+79166987546
+79680170692
+79256696795
+79670437706
+79260536489
+79055611868
+79175636080
+79154763798
+79060574185
+79015537433
+79104297188
+79663164152
+79683314792
+79154041556
+79944037582
+79256246059
+79636021055
+79099640276
+79096585900
+79251182889
+79854670874
+79671634355
+79057972248
+79858322965
+79031676295
+79851864135
+79254795534
+79163235856
+79639685734
+79647881005
+79852591438
+79851188414
+79637177425
+79661957332
+79858135188
+79166260574
+79637161021
+79770112431
+79857313010
+79629476670
+79773698837
+79778482506
+79850027521
+79264136763
+79588278089
+79663322628
+79164788693
+79266717760
+79253026109
+79268256103
+79057239215
+79853179281
+79661313614
+79262884359
+79175024057
+79670259221
+79055380975
+79104482628
+79639718470
+79637530259
+79096626120
+79621427411
+79269428412
+79256108466
+79035064281
+79647757970
+79031442399
+79856239570
+79776176354
+79031793086
+79680067198
+79031136279
+79516404302
+79250535502
+79035248834
+79163401022
+79055910253
+79850660520
+79637661077
+79296561238
+79055294485
+79032505011
+79660898642
+79854827670
+79162118415
+79645223061
+79621427411
+79099712006
+79261812081
+79856415223
+79774071325
+79036786489
+79251907559
+79636223153
+79151369900
+79267754096
+79670449077
+79776175851
+79775665012
+79671083329
+79653288743
+79161626720
+79096420817
+79031342110
+79258641913
+79653851946
+79639636227
+79067084788
+79166373140
+79850861503
+79858441752
+79169575919
+79629662425
+79161456213
+79151789143
+79168041946
+79037444065
+79091525422
+79091557815
+79057326771
+79645090705
+79688795285
+79055570983
+79851190540
+79776172735
+79637571743
+79855547345
+79855539476
+79684374355
+79262146768
+79646439951
+79151859276
+79067743572
+79855639482
+79661313614
+79104855914
+79260030430
+79091608009
+79671617790
+79051470437
+79689937086
+79104267894
+79104949109
+79869466287
+79257256470
+79257709642
+79680456992
+79295178909
+79153410964
+79651756303
+79265606180
+79037659581
+79175195498
+79859804875
+79169244450
+79854832706
+79253177577
+79057118429
+79771903915
+79684976868
+79169429438
+79858333752
+79661313614
+79777346755
+79856007442
+79850624300
+79150155482
+79260280939
+79152974502
+79035665371
+79035323471
+79055321357
+79037070856
+79263334644
+79099602066
+79154525091
+79779208940
+79150336208
+79264022580
+79165687437
+79161481435
+79608621997
+79661004557
+79150116115
+79663446878
+79857864980
+79057104942
+79067740857
+79645319692
+79036289881
+79055418732
+79912773504
+79067794106
+79099492698
+79651349034
+79645610872
+79175653121
+79166192629
+79161455417
+79295655018
+79163138130
+79653152688
+79055314296
+79896512228
+79267460486
+79263791985
+79772714354
+79645340519
+79671729885
+79776646387
+79855268163
+79852067932
+79035971699
+79250398449
+79651209488
+79267205440
+79091525428
+79161788163
+79636483547
+79154296631
+79037114251
+79670259232
+79296452573
+79647714715
+79253428703
+79857359794
+79057972116
+79636176712
+79096986445
+79262863207
+79055256843
+79776761928
+79263120601
+79164519374
+79660660923
+79857658386
+79263334644
+79852785462
+79647752324
+79057191038
+79851364118
+79264233539
+79869378200
+79267496041
+79853087667
+79851413059
+79060351336
+79684342707
+79647281047
+79670483269
+79850189904
+79587628706
+79268251575
+79776172768
+79261760449
+79192438416
+79057398234
+79259495951
+79856252011
+79152545926
+79035140195
+79850563420
+79858466436
+79858184932
+79670492971
+79164884742
+79175720183
+79264641182
+79160738656
+79257256470
+79257662534
+79057104818
+79262961310
+79651299813
+79154103223
+79264248969
+79013583881
+79150336208
+79267754121
+79067021626
+79961956200
+79150195960
+79035114284
+79853179244
+79268482832
+79671024133
+79258641035
+79253974230
+79169420361
+79661485618
+79680889900
+79154296506
+79259426559
+79670237185
+79261913097
+79005553113
+79653890520
+79175229313
+79096420817
+79169383912
+79269251195
+79267785344
+79039795675
+79264464787
+79637757367
+79647768162
+79639256569
+79771135779
+79267754121
+79197714373
+79055421028
+79299967504
+79057199441
+79096547166
+79055252303
+79850047505
+79057706266
+79035975988
+79060195911
+79218491154
+79636250010
+79261523596
+79771745133
+79152589058
+79296315052
+79154489240
+79254960581
+79867335187
+79264136376
+79264208208
+79778184857
+79037522440
+79261898530
+79295655018
+79853132963
+79683249064
+79067301884
+79637177425
+79265506736
+79055343896
+79857429015
+79175163903
+79670448865
+79257542286
+79265015205
+79160387117
+79267754096
+79057191038
+79688887856
+79999075285
+79265015205
+79265831879
+79853325013
+79854560765
+79670259226
+79167246228
+79253259133
+79005887175
+79269644199
+79853067455
+79055140527
+79651334515
+79067137973
+79253353241
+79151514804
+79851349287
+79057626677
+79296349774
+79629456099
+79099297625
+79055425773
+79852639139
+79055256646
+79852779475
+79686239149
+79651882930
+79850751757
+79035835978
+79104888035
+79660479737
+79917751833
+79672558000
+79055318640
+79859739781
+79037699020
+79268721905
+79151750137
+79852002474
+79684447181
+79163027278
+79218563318
+79258881268
+79295655018
+79295655018
+79258612175
+79151698390
+79684934052
+79688974142
+79295618618
+79261527194
+79067188213
+79858307462
+79167071946
+79165747069
+79151748239
+79661926133
+79676425532
+79269363034
+79852133016
+79151265932
+79663572001
+79269301748
+79661266439
+79175046483
+79099410500
+79154116083
+79855380621
+79151686626
+79854875726
+79017659067
+79858572253
+79168058865
+79166513472
+79843330571
+79057364837
+79636902162
+79680804803
+79166264060
+79251709580
+79637658266
+79253516099
+79166527028
+79067146058
+79150494512
+79067059284
+79661485591
+79055321590
+79252171246
+79653447890
+79259505388
+79993367807
+79654450458
+79154480770
+79031469918
+79253662854
+79057387489
+79104931690
+79660785408
+79266806256
+79260521715
+79267685095
+79693449992
+79629974026
+79670488556
+79163169859
+79067574101
+79267715518
+79686186704
+79031476628
+79266677975
+79295655018
+79858956685
+79687948501
+79660472381
+79647916577
+79164704362
+79652234992
+79637869910
+79637886116
+79055417416
+79067357100
+79167255615
+79214029710
+79055056194
+79254182007
+79647704825
+79633513331
+79031451327
+79856670467
+79163027278
+79261444131
+79851364068
+79104815708
+79670260687
+79269257635
+79770112431
+79032329611
+79250632402
+79258254157
+79651306272
+79855480069
+79152760021
+79267438666
+79691042020
+79857494276
+79037765066
+79671963014
+79299792196
+79252055579
+79253987599
+79684647111
+79854603638
+79255645754
+79647780328
+79652181729
+79101352206
+79588311951
+79164351599
+79163661829
+79850643268
+79651089393
+79169067994
+79067358120
+79104663762
+79296942175
+79251037929
+79168814665
+79254545080
+79663524777
+79039795675
+79258934272
+79269184871
+79263126553
+79776176334
+79150323619
+79857986064
+79031286282
+79251889295
+79167013441
+79670733223
+79165426599
+79652181371
+79295655018
+79015598655
+79853920075
+79629598736
+79264813096
+79851165302
+79153661938
+79161375483
+79037580108
+79255277329
+79032605284
+79153559319
+79154377911
+79686267024
+79652188130
+79671114288
+79645816219
+79154805412
+79856959640
+79260030895
+79060744181
+79166377130
+79017606532
+79268079557
+79663531821
+79853473850
+79633055546
+79671536262
+79663778783
+79858272450
+79161856276
+79653422536
+79167480920
+79251657082
+79775182343
+79855330184
+79258548175
+79009864875
+79961956200
+79268565903
+79035298756
+79299334636
+79031090751
+79265038593
+79253361750
+79645039783
+79857120904
+79099427619
+79169588591
+79261668463
+79175163903
+79661613777
+79639679032
+79253471164
+79255283094
+79162751627
+79852085710
+79057423024
+79645284712
+79096512228
+79057088621
+79851728718
+79851702792
+79251944031
+79252259108
+79067515549
+79060247272
+79778510419
+79267438234
+79673105607
+79663410176
+79859778931
+79037134215
+79686133514
+79692728857
+79690892916
+79257143526
+79637177425
+79096483230
+79151869239
+79251735433
+79039675902
+79268203620
+79855698599
+79060708061
+79776175072
+79858333752
+79852430316
+79296507327
+79684936961
+79060298355
+79266277451
+79167585083
+79660806899
+79645894933
+79250380144
+79099762166
+79653075222
+79670472879
+79776175921
+79858272029
+79670714758
+79859261027
+79153497403
+79151242210
+79263783508
+79164939091
+79260228145
+79260376299
+79161375897
+79587568395
+79654259041
+79774265329
+79671633879
+79295737240
+79660502263
+79653150587
+79850387838
+79151749346
+79639245948
+79253987599
+79680785121
+79257778528
+79055598152
+79161375820
+79262281649
+79099556656
+79993977770
+79017933067
+79858738244
+79104350506
+79060245880
+79772714354
+79663157782
+79031672483
+79629180851
+79261523526
+79858096679
+79661105445
+79164470408
+79037342198
+79067865250
+79015141382
+79636721915
+79037097884
+79629440961
+79647267913
+79100830368
+79776730120
+79168250123
+79645926196
+79104889834
+79268721905
+79256227028
+79261249565
+79688648977
+79652354040
+79858182816
+79651603207
+79096935712
+79257707325
+79057243586
+79645198991
+79154487960
+79154962502
+79254594128
+79150247620
+79096302490
+79250309106
+79670808177
+79652282060
+79774534726
+79295585405
+79961956200
+79036876282
+79101352991
+79166357749
+79670472995
+79636253311
+79693479273
+79153302984
+79260671054
+79661555629
+79167184273
+79652997177
+79036876282
+79035334634
+79031370788
+79253729564
+79099711946
+79153719119
+79032320219
+79036876282
+79855791727
+79268789728
+79265506736
+79166527044
+79857430468
+79163516408
+79267420689
+79031598528
+79651361617
+79169244450
+79636652127
+79055119188
+79152805342
+79683249064
+79269592060
+79645039775
+79636339569
+79850819946
+79057654474
+79859190586
+79035414586
+79684936575
+79169078470
+79850080543
+79645382166
+79150120441
+79055977378
+79670493677
+79261856738
+79852067932
+79854486610
+79032359286
+79047778747
+79252591968
+79037136066
+79857961161
+79032422260
+79671069315
+79672284691
+79269324952
+79168422856
+79266816890
+79256188716
+79645966284
+79672665386
+79858572247
+79165134459
+79031136279
+79150057848
+79645697218
+79917383665
+79647704608
+79858638767
+79060843224
+79854737250
+79776274778
+79653288644
+79295655018
+79652382743
+79168474793
+79854214273
+79254981194
+79850032353
+79684002914
+79855652957
+79164197808
+79067086992
+79091641105
+79160738368
+79671677970
+79261618439
+79253471056
+79629340949
+79295655018
+79779936665
+79163641432
+79099236923
+79684517697
+79772519361
+79060934880
+79852640331
+79645948168
+79267498090
+79670030105
+79067358362
+79773714832
+79685684035
+79155964799
+79851864227
+79260291190
+79857155385
+79647285247
+79057254709
+79067496907
+79100893004
+79151859119
+79261303511
+79851665823
+79060129884
+79067358190
+79851413059
+79654366991
+79032425453
+79260715870
+79099799411
+79259505389
+79296813688
+79219848195
+79299960886
+79688042743
+79262585536
+79850912599
+79036876282
+79652630270
+79096512228
+79776323983
+79032873853
+79299622325
+79653342173
+79099636915
+79295862521
+79680394702
+79296452826
+79099438777
+79135242120
+79660820901
+79167956896
+79168058865
+79296452844
+79258640899
+79255396621
+79258473783
+79259801942
+79775693394
+79258911427
+79637815482
+79660249104
+79015081032
+79035331560
+79260118510
+79773076379
+79688241293
+79096342309
+79651847878
+79104664700
+79252802551
+79689205281
+79167993886
+79037765066
+79258864415
+79853547473
+79032072084
+79057075609
+79150496408
+79661978060
+79636748652
+79661333949
+79166174492
+79268062109
+79167672014
+79265039519
+79661303240
+79055270556
+79651774105
+79587629156
+79853192041
+79060768635
+79169860004
+79670267701
+79857896
+79264360383
+79269565108
+79645723882
+79918698209
+79687512192
+79629329583
+79164181677
+79671784040
+79160039663
+79687015228
+79057436182
+79299992472
+79690418399
+79057922750
+79104466720
+79264798313
+79637177425
+79175392149
+79647897597
+79660834195
+79636035165
+79055249824
+79636311717
+79060843252
+79859783851
+79032852066
+79255724398
+79160190680
+79168391735
+79264813096
+79639732489
+79067977566
+79030179541
+79057118429
+79169066905
+79296452637
+79104821500
+79776175072
+79854312935
+79688342323
+79120407443
+79067865250
+79852842728
+79154966758
+79670472916
+79257821572
+79688241266
+79265128941
+79858262217
+79168090292
+79660785356
+79057221782
+79653626373
+79859778931
+79778323871
+79685556055
+79166797544
+79295655018
+79166424074
+79775731696
+79653960307
+79267780874
+79265038593
+79257316037
+79629984993
+79855681003
+79167488207
+79636483547
+79259604174
+79850997819
+79039795675
+79260030410
+79852476365
+79039732920
+79629574010
+79854450152
+79104552956
+79165450415
+79015380956
+79672697311
+79648770933
+79629617287
+79150552444
+79647842585
+79268064335
+79162307777
+79104900188
+79261200545
+79264225618
+79850240041
+79850027480
+79035307851
+79055026846
+79268836494
+79036865375
+79256719002
+79629563908
+79854623649
+79096512226
+79651774051
+79163755809
+79850364017
+79663398984
+79684810018
+79039788669
+79017448548
+79259431026
+79067064296
+79995167608
+79663664146
+79035033045
+79051470439
+79269565108
+79164458943
+79150682052
+79037070408
+79296315078
+79037946846
+79685145252
+79032309332
+79037750341
+79623649891
+79663019494
+79689434338
+79162307777
+79660686187
+79855593681
+79645198991
+79250148241
+79688605381
+79645724929
+79852033446
+79636034414
+79670258789
+79191065700
+79036876282
+79680572669
+79296013636
+79859118597
+79663345339
+79260347600
+79639245948
+79099751370
+79654106661
+79687439256
+79207420796
+79919889536
+79850411236
+79255280681
+79268721905
+79295614888
+79254984533
+79776172723
+79637196364
+79311033168
+79062744245
+79663318828
+79153571886
+79855394769
+79252081860
+79852140904
+79296947713
+79853074267
+79661313614
+79153340577
+79957579643
+79013586097
+79856451898
+79261451682
+79150388771
+79164426229
+79645607462
+79686133514
+79854623665
+79152187871
+79037842315
+79854699528
+79686529602
+79296492914
+79651108885
+79850861262
+79150240494
+79151429450
+79851829896
+79663192766
+79057022215
+79164155692
+79919333840
+79037593921
+79163027278
+79030054324
+79651667575
+79857865301
+79856239570
+79150237896
+79295655018
+79039795675
+79151473192
+79160122095
+79639995223
+79154833520
+79687760740
+79151349121
+79254314270
+79858182816
+79031401028
+79055635033
+79856235867
+79584983740
+79629706495
+79268017244
+79647742032
+79257803258
+79060657175
+79017398140
+79161480793
+79153906005
+79652508488
+79164788577
+79856888075
+79629199447
+79168775734
+79645206813
+79685229057
+79096512228
+79035323471
+79057216210
+79255231070
+79992796266
+79295655018
+79855844105
+79096512228
+79057654919
+79637162950
+79217974135
+79169431665
+79150849051
+79104743130
+79663255084
+79264515532
+79162307777
+79636090765
+79852640331
+79637654527
+79771928155
+79690181185
+79065582902
+79060195913
+79035059254
+79772714354
+79685856654
+79252436063
+79660106248
+79852825372
+79262875475
+79998923374
+79857155385
+79852426410
+79096325464
+79296089012
+79047778747
+79060604630
+79031829667
+79161383822
+79254919950
+79690863732
+79629225221
+79850819711
+79777695556
+79775569934
+79060196061
+79163356495
+79265620720
+79651319117
+79039795675
+79629348902
+79055417854
+79776193566
+79166307276
+79057529724
+79255366082
+79670437708
+79660785486
+79776174945
+79671332025
+79030027166
+79254305055
+79153996438
+79256513681
+79653447849
+79169610558
+79671536262
+79152849134
+79032442541
+79587629649
+79031401028
+79169244450
+79032354867
+79636086384
+79057558401
+79152974502
+79037312469
+79269444278
+79268014512
+79672161147
+79776323983
+79256468193
+79362223770
+79299992472
+79629820830
+79670503483
+79150975019
+79295655018
+79175086486
+79639245948
+79257406126
+79096767162
+79015520363
+79652592283
+79672597656
+79037089776
+79296559490
+79684493224
+79267381834
+79175086486
+79263621759
+79295655018
+79645606036
+79636176357
+79037659581
+79850643271
+79165838634
+79037662501
+79263299768
+79259761952
+79154694004
+79060446280
+79854725832
+79153661792
+79055294485
+79685856433
+79776649177
+79252649546
+79035023477
+79652126372
+79154296308
+79260671054
+79629654019
+79852240345
+79163138066
+79017227708
+79857494083
+79854040293
+79165052008
+79260376283
+79779778357
+79857980733
+79268062597
+79645988131
+79175086486
+79264591623
+79652715203
+79167690629
+79859190587
+79099602066
+79151265932
+79269433735
+79639955016
+79629159635
+79858157865
+79774504163
+79671982918
+79253201728
+79629937290
+79032434933
+79629088860
+79252901573
+79060308803
+79686133539
+79151078036
+79256387559
+79647641924
+79262556352
+79295229646
+79852002468
+79296315071
+79663026589
+79685962929
+79261460577
+79852067932
+79295655018
+79055550413
+79260461405
+79687492622
+79137739719
+79067143312
+79015141387
+79689472547
+79161375945
+79296452833
+79032431314
+79670461900
+79150104914
+79251182805
+79039795675
+79268888654
+79629456082
+79661926133
+79257094144
+79268373068
+79031977339
+79777321479
+79060765917
+79687709203
+79850221532
+79653825999
+79251663200
+79295800311
+79256573393
+79636514352
+79055249778
+79660106260
+79037502199
+79260376590
+79661313614
+79776175072
+79258626203
+79267738445
+79267456966
+79853187206
+79778345708
+79516404302
+79639780013
+79259855358
+79031829667
+79663480047
+79855380610
+79876218606
+79039732874
+79104235345
+79857302825
+79253063849
+79689944675
+79256696795
+79257709642
+79096342309
+79055256436
+79036713515
+79637177425
+79262556352
+79651352872
+79099200627
+79250239239
+79258094346
+79104888021
+79268008866
+79653960282
+79672083620
+79161375483
+79636721915
+79151350022
+79653419093
+79685738790
+79663410182
+79252426998
+79096986429
+79152953814
+79685226656
+79096914795
+79096663173
+79067474807
+79099289001
+79856870336
+79636267553
+79296947713
+79295655018
+79850844496
+79152443148
+79257285714
+79154624485
+79773280948
+79629196719
+79261545041
+79039795675
+79015380974
+79165171729
+79036834032
+79607727293
+79670474906
+79856387065
+79251025127
+79162715120
+79060913405
+79036842108
+79151034355
+79067048392
+79687756967
+79587569414
+79164692089
+79169544839
+79165480317
+79853562887
+79258354425
+79679229244
+79670260787
+79295585405
+79645630929
+79207172829
+79636490435
+79153739408
+79689192844
+79057040141
+79164384774
+79067279479
+79175904659
+79686788185
+79639663591
+79251646487
+79153015225
+79854725832
+79260578131
+79035734012
+79654299401
+79035501841
+79166215005
+79684689988
+79260376291
+79259990241
+79856471486
+79036856780
+79771746340
+79661926135
+79255557516
+79670447795
+79168785297
+79151698390
+79264192369
+79621427411
+79163065075
+79999075285
+79773280948
+79653444963
+79685297317
+79993977770
+79685401003
+79096530194
+79096619946
+79858780584
+79850503548
+79150415974
+79055319989
+79827609400
+79663383843
+79015537433
+79032384107
+79055337049
+79055294058
+79671377577
+79850840175
+79663322628
+79629456516
+79057935920
+79295493048
+79260280939
+79684447141
+79637177425
+79647200795
+79852847297
+79637886116
+79670259404
+79169384771
+79689181875
+79057866966
+79685824453
+79295229646
+79851376630
+79099954070
+79037511257
+79160738656
+79268203620
+79161396528
+79252047593
+79096342309
+79036876282
+79259264945
+79687757006
+79629006013
+79166264060
+79163229187
+79256401468
+79684729801
+79166313018
+79645697218
+79663241427
+79263783508
+79852085435
+79777886800
+79855791740
+79650958970
+79831620377
+79776176354
+79263589525
+79104637846
+79685693737
+79685955353
+79670489255
+79950005550
+79150159294
+79295095178
+79629158641
+79651157828
+79267035607
+79268483173
+79263621759
+79651344635
+79670138975
+79855064541
+79203368066
+79096648877
+79267783455
+79251646487
+79096643255
+79660492900
+79856697623
+79032385567
+79036142619
+79252148282
+79691230662
+79654329268
+79057226244
+79060744181
+79259893125
+79039795675
+79660931717
+79670233882
+79163027278
+79015445027
+79166311204
+79777695556
+79671114180
+79629974026
+79680912929
+79629896246
+79154061024
+79269175276
+79161375945
+79685824453
+79267732295
+79032522177
+79015771089
+79269741209
+79060876014
+79581117270
+79067559859
+79154031660
+79258796452
+79039795675
+79852085024
+79032776092
+79104821704
+79162524748
+79260395644
+79636875841
+79153621902
+79253870843
+79235360963
+79151429145
+79636267900
+79036210488
+79637869025
+79670868953
+79260228658
+79689434338
+79663345521
+79096512226
+79153706900
+79161821899
+79035501841
+79852240335
+79199669282
+79032359286
+79096844351
+79037522441
+79623651290
+79032320219
+79653832074
+79856948965
+79779778357
+79252199514
+79037477479
+79037942643
+79653322985
+79851404360
+79850030679
+79855421307
+79856146361
+79859040708
+79651133412
+79162262040
+79035307851
+79269298980
+79263872135
+79661375960
+79263678979
+79055332957
+79645894933
+79660619260
+79164745307
+79295655018
+79850411236
+79264515532
+79858182816
+79663726580
+79645039737
+79858269705
+79258595106
+79857980733
+79636090765
+79629626095
+79253729572
+79015607267
+79637815482
+79772714354
+79584983156
+79856382854
+79663322628
+79166446535
+79295655018
+79154560482
+79060887814
+79099438777
+79099798621
+79153827675
+79672421306
+79685856433
+79057307504
+79263333369
+79670276007
+79774822620
+79661571813
+79854450038
+79777966064
+79163027278
+79067064061
+79017080860
+79039646769
+79851711952
+79690409969
+79154209296
+79161547089
+79295530059
+79262729327
+79919889536
+79645286192
+79268715787
+79295655018
+79653852541
+79651736536
+79153059841
+79775074958
+79266240718
+79776175921
+79663430639
+79670385037
+79688946261
+79015943928
+79055908954
+79057386520
+79672284691
+79036139787
+79670447791
+79060614653
+79672421293
+79169588513
+79100830419
+79017649291
+79099024183
+79296349774
+79670238081
+79032383934
+79858703189
+79015055129
+79639267352
+79168775784
+79268784602
+79055420338
+79057326771
+79260481429
+79251520163
+79652587038
+79162817531
+79636721915
+79299546438
+79032989513
+79260227541
+79645894933
+79267657705
+79253056241
+79995537751
+79250309106
+79096377621
+79581029999
+79067357795
+79032975267
+79670437730
+79164687460
+79672167950
+79645080996
+79161678450
+79164614828
+79772603038
+79680349626
+79039734348
+79067358479
+79055807946
+79036876282
+79167173046
+79167309877
+79254979812
+79162307777
+79687493930
+79032729819
+79660049110
+79636558160
+79169818043
+79168096723
+79852430316
+79039795675
+79375905189
+79260030430
+79818862741
+79096439123
+79670294099
+79776173887
+79857364967
+79661517448
+79851787671
+79091639729
+79852791906
+79629456610
+79192438950
+79035444170
+79856197289
+79661711393
+79663590073
+79856895306
+79660806533
+79254766601
+79295181138
+79169953899
+79672635358
+79031413771
+79096552519
+79251801305
+79096648877
+79858128903
+79253687680
+79680067198
+79252979587
+79268112474
+79097118634
+79253145639
+79660785732
+79670448184
+79060371838
+79096876169
+79854714379
+79261400609
+79164199393
+79647273276
+79683791050
+79163484041
+79015124640
+79854568609
+79858189049
+79096884697
+79672597656
+79629197248
+79654367963
+79919707264
+79686035454
+79684993137
+79857430228
+79252404414
+79660230386
+79260785491
+79096339367
+79168775684
+79774992163
+79166396032
+79162307777
+79999279251
+79688855070
+79645039794
+79660785732
+79852429973
+79030054328
+79161375897
+79055817571
+79855699400
+79153013850
+79032354867
+79687385013
+79993374333
+79661715806
+79688820968
+79165879126
+79169574739
+79776173987
+79175024115
+79621427411
+79268621375
+79263569757
+79637241175
+79637288716
+79637863685
+79168775730
+79035331467
+79688341212
+79161032943
+79265141368
+79653935435
+79663345812
+79588129870
+79685449272
+79857359752
+79258473783
+79260616124
+79645817490
+79856981705
+79826101923
+79099639470
+79268025310
+79584983156
+79671595804
+79259756263
+79265546820
+79269184871
+79266868661
+79775731696
+79652957668
+79151859170
+79251943484
+79645109649
+79268787812
+79254321256
+79851909321
+79152187871
+79637799967
+79859152070
+79104036524
+79099798195
+79067248835
+79850820045
+79057916726
+79152673549
+79250185317
+79254359786
+79096807098
+79259755126
+79672255384
+79169546119
+79648770933
+79151768134
+79037803498
+79161335045
+79032351752
+79067352580
+79265159953
+79851909430
+79686133539
+79166401394
+79036146327
+79856482341
+79800998003
+79169291180
+79060195826
+79060195929
+79151426913
+79299971332
+79268062109
+79160446953
+79060454973
+79396666919
+79651354824
+79056147445
+79653399268
+79264022580
+79151967442
+79031938073
+79773680000
+79036825390
+79152804878
+79853141929
+79660502263
+79055635033
+79645948129
+79167564956
+79057928653
+79645616204
+79163755809
+79859190586
+79055224438
+79296887420
+79661275970
+79256825048
+79851364068
+79257662534
+79164465779
+79653138174
+79850581459
+79777762561
+79165649636
+79031639497
+79257592651
+79858234154
+79055292819
+79162307777
+79067688972
+79637783706
+79296452635
+79858964675
+79516404328
+79639245948
+79671377577
+79670484637
+79067143054
+79256190435
+79680575515
+79854607441
+79854210356
+79015337266
+79167659520
+79660898642
+79166446535
+79032153351
+79779778357
+79060290520
+79629355009
+79637757269
+79800198427
+79670138975
+79251740423
+79253486217
+79162262040
+79162071169
+79032313032
+79264098751
+79166373140
+79259804075
+79035307091
+79647989930
+79269867170
+79150159294
+79670235805
+79850039299
+79850647146
+79999682593
+79629967142
+79199659135
+79031134641
